4 Vertical profiles | Introductory exercises with bioRad
…
## The following objects are masked from 'package:stats':
## 
##     filter, lag

## The following objects are masked from 'package:base':
## 
##     intersect, setdiff, setequal, union

# convert vpts object to a data.frame:
example_vpts %>%
  as_tibble() -> my_df
my_df

## # A tibble: 48,350 × 27
##    radar datetime            height      u      v      w     ff    dd sd_vvp
##    <chr> <dttm>               <int>  <dbl>  <dbl>  <dbl>  <dbl> <dbl>  <dbl>
##  1 KBGM  2016-09-01 00:02:00      0 NaN    NaN    NaN    NaN    NaN   NaN   
##  2 KBGM  2016-09-01 00:02:00    200 NaN    NaN    NaN    NaN    NaN   NaN   
##  3 KBGM  2016-09-01 00:02:00    400 NaN    NaN    NaN    NaN    NaN     2.81
##  4 KBGM  2016-09-01 00:02:00    600   4.14   3.84  12.2    5.65  47.2   2.8 
##  5 KBGM  2016-09-01 00:02:00    800   5.06   0.24  15.2    5.07  87.2   2.42
##  6 KBGM  2016-09-01 00:02:00   1000   4.74  -2.69  18.5    5.45 120.    2.38
##  7 KBGM  2016-09-01 00:02:00   1200   4.41  -4.09  -2.49   6.02 133.    2.29
##  8 KBGM  2016-09-01 00:02:00   1400   4.78  -3.55  -2.96   5.96 127.    2.34
##  9 KBGM  2016-09-01 00:02:00   1600   3.75  -3.03  -7.32   4.82 129.    2.62
## 10 KBGM  2016-09-01 00:02:00   1800   4.14  -2.03  -5.69   4.61 116.    3.06
## # ℹ 48,340 more rows
## # ℹ 18 more variables: gap <lgl>, dbz <dbl>, eta <dbl>, dens <dbl>, DBZH <dbl>,
## #   n <int>, n_dbz <int>, n_all <int>, n_dbz_all <int>, rcs <dbl>,
## #   sd_vvp_threshold <dbl>, radar_latitude <dbl>, radar_longitude <dbl>,
## #   radar_height <dbl>, radar_wavelength <dbl>, day <lgl>, sunrise <dttm>,
## #   sunset <dttm>
…
